<?xml version="1.0" encoding="UTF-8" standalone="no"?>
<!-- Generator: Adobe Illustrator 22.0.0, SVG Export Plug-In . SVG Version: 6.00 Build 0)  -->

<svg
   xmlns:dc="http://purl.org/dc/elements/1.1/"
   xmlns:cc="http://creativecommons.org/ns#"
   xmlns:rdf="http://www.w3.org/1999/02/22-rdf-syntax-ns#"
   xmlns:svg="http://www.w3.org/2000/svg"
   xmlns="http://www.w3.org/2000/svg"
   xmlns:sodipodi="http://sodipodi.sourceforge.net/DTD/sodipodi-0.dtd"
   xmlns:inkscape="http://www.inkscape.org/namespaces/inkscape"
   version="1.1"
   id="Layer_1"
   x="0px"
   y="0px"
   viewBox="0 0 552.09962 84.562523"
   xml:space="preserve"
   inkscape:version="0.91 r13725"
   sodipodi:docname="name_compact.svg"
   width="552.09961"
   height="84.562523"><metadata
     id="metadata47"><rdf:RDF><cc:Work
         rdf:about=""><dc:format>image/svg+xml</dc:format><dc:type
           rdf:resource="http://purl.org/dc/dcmitype/StillImage" /><dc:title>logo MV_bottom low 1 - 2 image - text</dc:title></cc:Work></rdf:RDF></metadata><defs
     id="defs45" /><sodipodi:namedview
     pagecolor="#ffffff"
     bordercolor="#666666"
     borderopacity="1"
     objecttolerance="10"
     gridtolerance="10"
     guidetolerance="10"
     inkscape:pageopacity="0"
     inkscape:pageshadow="2"
     inkscape:window-width="1920"
     inkscape:window-height="1026"
     id="namedview43"
     showgrid="false"
     fit-margin-top="0"
     fit-margin-left="0"
     fit-margin-right="0"
     fit-margin-bottom="0"
     inkscape:zoom="1.2140881"
     inkscape:cx="285.57001"
     inkscape:cy="-39.230365"
     inkscape:window-x="0"
     inkscape:window-y="27"
     inkscape:window-maximized="1"
     inkscape:current-layer="Layer_1" /><style
     type="text/css"
     id="style3">
	.st0{fill:none;}
	.st1{fill:none;stroke:#000000;stroke-width:15;}
	.st2{fill:none;stroke:#000000;stroke-width:8;}
	.st3{fill:none;stroke:#000000;stroke-width:4;}
	.st4{stroke:#000000;stroke-width:3;}
</style><title
     id="title5">logo MV_bottom low 1 - 2 image - text</title><g
     id="g4257"
     transform="translate(-32.619111,60.001953)"><path
       inkscape:connector-curvature="0"
       id="path25"
       d="m 34.119141,-12.269531 9.300781,9.974609 0,-8.607422 20.099609,-0.599609 0,30.763672 3.197266,3.429687 5.902344,-1.574218 0,-32.119141 20.099609,-0.601563 0,27.361328 9.14453,-2.4375 -0.043,-25.822265 c 0,-5.1 -2.50156,-7.601563 -7.60156,-7.601563 -3.8,0.1 -7.598438,0.4 -11.398438,1 -3.899999,0.6 -7.701562,1.101563 -11.601562,1.601563 -1.3,-1.7 -3.399219,-2.601563 -6.199219,-2.601563 -3.7,0 -7.30039,0.300782 -10.90039,0.800782 -3.6,0.6 -7.198828,1 -10.798829,1.5 l 0,-1.900391 -9.201171,0 0,7.433594 z"
       style="fill:#bbbbbb;fill-opacity:1;stroke:#bbbbbb;stroke-width:3;stroke-opacity:1" /><path
       inkscape:connector-curvature="0"
       id="path27"
       d="m 155.21875,1.359375 9.10156,-1.654297 0,-11.808594 c 0,-5.2 -2.60078,-7.798828 -7.80078,-7.798828 l -22.19922,0 c -5.2,0 -7.80078,2.598828 -7.80078,7.798828 l 0,11.400391 8.90039,0 0,-11.5 19.79883,0 0,13.5625 z"
       style="fill:#bbbbbb;fill-opacity:1;stroke:#bbbbbb;stroke-width:3;stroke-opacity:1" /><path
       inkscape:connector-curvature="0"
       id="path29"
       d="m 188.61914,19.396484 4.11719,-4.117187 5.08398,-3.013672 0,-23.167969 17,-0.599609 0,13.695312 9.0625,-5.371093 -0.0625,-9.324219 c 0,-5.1 -2.50156,-7.601563 -7.60156,-7.601563 -3.1,0 -6.19922,0.300782 -9.19922,0.800782 -3.1,0.5 -6.19922,1 -9.19922,1.5 l 0,-1.900391 -9.20117,0 0,39.099609 z"
       style="fill:#bbbbbb;fill-opacity:1;stroke:#bbbbbb;stroke-width:3;stroke-opacity:1" /><path
       inkscape:connector-curvature="0"
       id="path31"
       d="m 244.91992,-5.818359 9.19922,6.277343 0,-12.162109 20.30078,0 0,26.017578 9.19922,6.279297 0,-32.595703 c 0,-5.2 -2.59883,-7.800781 -7.79883,-7.800781 l -23.10156,0 c -5.2,0 -7.79883,2.600781 -7.79883,7.800781 l 0,6.183594 z"
       style="fill:#bbbbbb;fill-opacity:1;stroke:#bbbbbb;stroke-width:3;stroke-opacity:1" /><path
       inkscape:connector-curvature="0"
       id="path4199"
       d="m 360.42773,14.607422 6.66602,6.949219 9.625,-38.958985 -9.29883,0 -6.99219,32.009766 z"
       style="fill:#bbbbbb;fill-opacity:1;stroke:#bbbbbb;stroke-width:3;stroke-opacity:1" /><path
       inkscape:connector-curvature="0"
       id="path33"
       d="m 336.60547,-10.222656 11.97265,12.480468 -4.25781,-19.660156 -9.5,0 1.78516,7.179688 z"
       style="fill:#bbbbbb;fill-opacity:1;stroke:#bbbbbb;stroke-width:3;stroke-opacity:1" /><path
       inkscape:connector-curvature="0"
       id="path35"
       d="m 402.91992,-8.753906 9.09961,8.03125 0,-8.980469 19.80078,0 0,20.300781 -6.97656,0 8.38477,7.400391 4.39062,0 3.09961,-3.300781 0,-24.300782 c 0,-5.2 -2.59883,-7.798828 -7.79883,-7.798828 l -22.20117,0 c -5.2,0 -7.79883,2.598828 -7.79883,7.798828 l 0,0.84961 z"
       style="fill:#bbbbbb;fill-opacity:1;stroke:#bbbbbb;stroke-width:3;stroke-opacity:1" /><path
       inkscape:connector-curvature="0"
       id="path37"
       d="m 471.01953,19.636719 9.19922,-5.703125 0,-22.53711 17,-0.5 0,12.494141 9.05469,-5.613281 -0.0547,-7.980469 c 0,-5.1 -2.49961,-7.599609 -7.59961,-7.599609 -3.1,0 -6.19922,0.300781 -9.19922,0.800781 -3.1,0.6 -6.20117,1 -9.20117,1.5 l 0,-1.900391 -9.19922,0 0,37.039063 z"
       style="fill:#bbbbbb;fill-opacity:1;stroke:#bbbbbb;stroke-width:3;stroke-opacity:1" /><path
       inkscape:connector-curvature="0"
       id="path39"
       d="m 533.61914,-58.501953 0,45.369141 9.09961,15.923828 0,-61.292969 -9.09961,0 z"
       style="fill:#bbbbbb;fill-opacity:1;stroke:#bbbbbb;stroke-width:3;stroke-opacity:1" /><path
       inkscape:connector-curvature="0"
       id="path4240"
       d="m 573.82031,-43.902344 0,11.699219 9.39844,0 0,-11.699219 -9.39844,0 z"
       style="fill:#bbbbbb;fill-opacity:1;stroke:#bbbbbb;stroke-width:3;stroke-opacity:1" /><path
       inkscape:connector-curvature="0"
       id="path4238"
       d="m 583.11914,-5.501953 0,-12 -9.09961,0 0,31.753906 9.09961,-19.753906 z"
       style="fill:#bbbbbb;fill-opacity:1;stroke:#bbbbbb;stroke-width:3;stroke-opacity:1" /></g><g
     id="g4242"
     transform="translate(-32.619111,-39.998047)"><path
       id="path4161"
       d="m 92.71875,75.757812 0,31.839848 9.20117,0 -0.0566,-34.277348 -9.14453,2.4375 z"
       style="fill:#bbbbbb;fill-opacity:1;stroke:#bbbbbb;stroke-width:3;stroke-opacity:1"
       inkscape:connector-curvature="0" /><path
       id="path4159"
       d="m 63.519531,79.261719 0,28.435551 9.09961,0 0,-26.580082 -5.902344,1.574218 -3.197266,-3.429687 z"
       style="fill:#bbbbbb;fill-opacity:1;stroke:#bbbbbb;stroke-width:3;stroke-opacity:1"
       inkscape:connector-curvature="0" /><path
       id="path4157"
       d="m 34.119141,47.730469 0,60.066411 9.300781,0 0,-50.091802 -9.300781,-9.974609 z"
       style="fill:#bbbbbb;fill-opacity:1;stroke:#bbbbbb;stroke-width:3;stroke-opacity:1"
       inkscape:connector-curvature="0" /><path
       id="path4166"
       d="m 155.21875,61.359375 0,6.738281 -21.69922,0 c -5.2,0 -7.80078,2.598828 -7.80078,7.798828 l 0,24.601566 c 0,5 2.60156,7.5 7.60156,7.5 3.7,0 7.29844,-0.30078 10.89844,-0.80078 3.7,-0.5 7.3,-1 11,-1.5 l 0,1.90039 9.10156,0 0,-47.892582 -9.10156,1.654297 z m -20.5,14.037109 20.60156,0 0,23.900391 -20.60156,0.400391 0,-24.300782 z"
       style="fill:#bbbbbb;fill-opacity:1;stroke:#bbbbbb;stroke-width:3;stroke-opacity:1"
       inkscape:connector-curvature="0" /><path
       id="path4173"
       d="m 214.82031,62.193359 0,0.203125 9.09961,0 -0.0371,-5.574218 -9.0625,5.371093 z"
       style="fill:#bbbbbb;fill-opacity:1;stroke:#bbbbbb;stroke-width:3;stroke-opacity:1"
       inkscape:connector-curvature="0" /><path
       id="path4171"
       d="m 188.61914,79.396484 0,28.400396 9.20117,0 0,-35.531255 -5.08398,3.013672 -4.11719,4.117187 z"
       style="fill:#bbbbbb;fill-opacity:1;stroke:#bbbbbb;stroke-width:3;stroke-opacity:1"
       inkscape:connector-curvature="0" /><path
       id="path4178"
       d="m 244.91992,54.181641 0,45.615234 c 0,5.200005 2.59883,7.800785 7.79883,7.800785 l 23.10156,0 c 5.2,0 7.79883,-2.60078 7.79883,-7.800785 l 0,-19.203125 -9.19922,-6.279297 0,25.183594 -20.30078,0 0,-39.039063 -9.19922,-6.277343 z"
       style="fill:#bbbbbb;fill-opacity:1;stroke:#bbbbbb;stroke-width:3;stroke-opacity:1"
       inkscape:connector-curvature="0" /><path
       id="path4197"
       d="m 336.60547,49.777344 15.01367,60.419926 8.40039,0 7.07422,-28.640629 -6.66602,-6.949219 -4.60742,21.089844 -7.24219,-33.439454 -11.97265,-12.480468 z"
       style="fill:#bbbbbb;fill-opacity:1;stroke:#bbbbbb;stroke-width:3;stroke-opacity:1"
       inkscape:connector-curvature="0" /><path
       id="path4204"
       d="m 402.91992,51.246094 0,50.951176 c 0,5.2 2.59883,7.80078 7.79883,7.80078 l 22.20117,0 c 5.2,0 7.79883,-2.60078 7.79883,-7.80078 l 0,-12.199223 -9,0 0,12.298833 -19.79883,0 0,-24.298833 21.3086,0 -8.38477,-7.400391 -12.82422,0 0,-11.320312 -9.09961,-8.03125 z"
       style="fill:#bbbbbb;fill-opacity:1;stroke:#bbbbbb;stroke-width:3;stroke-opacity:1"
       inkscape:connector-curvature="0" /><path
       id="path4211"
       d="m 497.21875,63.390625 0,1.40625 9.10156,0 -0.0469,-7.019531 -9.05469,5.613281 z"
       style="fill:#bbbbbb;fill-opacity:1;stroke:#bbbbbb;stroke-width:3;stroke-opacity:1"
       inkscape:connector-curvature="0" /><path
       id="path4209"
       d="m 471.01953,79.636719 0,30.460941 9.19922,0 0,-36.164066 -9.19922,5.703125 z"
       style="fill:#bbbbbb;fill-opacity:1;stroke:#bbbbbb;stroke-width:3;stroke-opacity:1"
       inkscape:connector-curvature="0" /><path
       id="path4216"
       d="m 542.71875,62.791016 -9.09961,-15.923828 0,63.130862 9.09961,0 0,-47.207034 z"
       style="fill:#bbbbbb;fill-opacity:1;stroke:#bbbbbb;stroke-width:3;stroke-opacity:1"
       inkscape:connector-curvature="0" /><path
       id="path41"
       d="m 583.11914,54.498047 -9.09961,19.753906 0,35.746097 9.09961,0 0,-55.500003 z"
       style="fill:#bbbbbb;fill-opacity:1;stroke:#bbbbbb;stroke-width:3;stroke-opacity:1"
       inkscape:connector-curvature="0" /></g></svg>